%YAML 1.1
%TAG !u! tag:unity3d.com,2011:
--- !u!21 &2100000
Material:
  serializedVersion: 6
  m_ObjectHideFlags: 0
  m_PrefabParentObject: {fileID: 0}
  m_PrefabInternal: {fileID: 0}
  m_Name: Con LevelB Fluid
  m_Shader: {fileID: 4800000, guid: 00fbfb4c77681944a9b9aba99eb95d6e, type: 3}
  m_ShaderKeywords: 
  m_LightmapFlags: 4
  m_EnableInstancingVariants: 0
  m_DoubleSidedGI: 0
  m_CustomRenderQueue: -1
  stringTagMap: {}
  disabledShaderPasses: []
  m_SavedProperties:
    serializedVersion: 3
    m_TexEnvs:
    - _BumpMap:
        m_Texture: {fileID: 2800000, guid: a53cf5449d11a15d1100a04b44295342, type: 3}
        m_Scale: {x: 1, y: 1}
        m_Offset: {x: 0, y: 0}
    - _ColorControl:
        m_Texture: {fileID: 2800000, guid: 45ebac23d4559e649b37533493b3ac5c, type: 3}
        m_Scale: {x: 1, y: 1}
        m_Offset: {x: 0, y: 0}
    - _MainTex:
        m_Texture: {fileID: 2800000, guid: ad9da3ba8ead94463bb15d4711723cdd, type: 3}
        m_Scale: {x: 1, y: 1}
        m_Offset: {x: 0, y: 0}
    m_Floats:
    - _Levels: 3
    - _LightBalance: 0.8283582
    - _Threshold: 0.94776124
    - _WaveScale: 6
    - _WaveSpeedX: 0.15
    - _WaveSpeedY: 0.08
    m_Colors:
    - _Color: {r: 1, g: 1, b: 1, a: 1}
    - _Color1: {r: 0, g: 0, b: 0, a: 1}
    - _Horizon: {r: 0.6745098, g: 0.70980394, b: 0.7372549, a: 1}
    - _HorizonColor: {r: 0, g: 0, b: 0, a: 0}
