%YAML 1.1
%TAG !u! tag:unity3d.com,2011:
--- !u!21 &2100000
Material:
  serializedVersion: 6
  m_ObjectHideFlags: 0
  m_PrefabParentObject: {fileID: 0}
  m_PrefabInternal: {fileID: 0}
  m_Name: ConCon Fluid
  m_Shader: {fileID: 4800000, guid: 1fe6e2c317de9c942853481d0a81937b, type: 3}
  m_ShaderKeywords: 
  m_LightmapFlags: 4
  m_EnableInstancingVariants: 0
  m_DoubleSidedGI: 0
  m_CustomRenderQueue: -1
  stringTagMap: {}
  disabledShaderPasses: []
  m_SavedProperties:
    serializedVersion: 3
    m_TexEnvs:
    - _BumpMap:
        m_Texture: {fileID: 2800000, guid: a53cf5449d11a15d1100a04b44295342, type: 3}
        m_Scale: {x: 1, y: 1}
        m_Offset: {x: 0, y: 0}
    - _ColorControl:
        m_Texture: {fileID: 2800000, guid: 45ebac23d4559e649b37533493b3ac5c, type: 3}
        m_Scale: {x: 1, y: 1}
        m_Offset: {x: 0, y: 0}
    - _Lookup:
        m_Texture: {fileID: 2800000, guid: 4a056241e2722dc46a7262a8e7073fd9, type: 3}
        m_Scale: {x: 1, y: 1}
        m_Offset: {x: 0, y: 0}
    - _MainTex:
        m_Texture: {fileID: 2800000, guid: 1f255cb502e5ef942b7ef9f727a151d4, type: 3}
        m_Scale: {x: 1, y: 1}
        m_Offset: {x: 0, y: 0}
    - _ParallaxMap:
        m_Texture: {fileID: 0}
        m_Scale: {x: 1, y: 1}
        m_Offset: {x: 0, y: 0}
    m_Floats:
    - _Brightness: -0.5
    - _Contrast: 3
    - _LightBalance: 0.5
    - _Offset: 0.2
    - _Parallax: 0.02
    - _Scale: 2
    - _Threshold: 0.5
    - _WaveScale: 6
    - _WaveSpeedX: 0.15
    - _WaveSpeedY: 0.08
    m_Colors:
    - _Color: {r: 1, g: 1, b: 1, a: 0.53333336}
    - _Color1: {r: 0, g: 0, b: 0, a: 0.72156864}
    - _Horizon: {r: 0.6901961, g: 0.7176471, b: 0.75686276, a: 1}
