%YAML 1.1
%TAG !u! tag:unity3d.com,2011:
--- !u!21 &2100000
Material:
  serializedVersion: 6
  m_ObjectHideFlags: 0
  m_PrefabParentObject: {fileID: 0}
  m_PrefabInternal: {fileID: 0}
  m_Name: ConTH B 1
  m_Shader: {fileID: 4800000, guid: e07c961b370c4a94abaaf8d6a7c97745, type: 3}
  m_ShaderKeywords: 
  m_LightmapFlags: 4
  m_EnableInstancingVariants: 0
  m_DoubleSidedGI: 0
  m_CustomRenderQueue: -1
  stringTagMap: {}
  disabledShaderPasses: []
  m_SavedProperties:
    serializedVersion: 3
    m_TexEnvs:
    - _BumpMap:
        m_Texture: {fileID: 2800000, guid: 30657701edfbd8341a40a04c06a01b0a, type: 3}
        m_Scale: {x: 1, y: 1}
        m_Offset: {x: 0, y: 0}
    - _MainTex:
        m_Texture: {fileID: 2800000, guid: ad9da3ba8ead94463bb15d4711723cdd, type: 3}
        m_Scale: {x: 1, y: 1}
        m_Offset: {x: 0, y: 0}
    m_Floats:
    - _LightBalance: 0.5
    - _Threshold: 0.5
    m_Colors:
    - _Color: {r: 0.7254902, g: 0.46666667, b: 0.101960786, a: 1}
    - _Color1: {r: 0.14925373, g: 0.10647776, b: 0.043439515, a: 1}
