%YAML 1.1
%TAG !u! tag:unity3d.com,2011:
--- !u!74 &7400000
AnimationClip:
  m_ObjectHideFlags: 0
  m_PrefabParentObject: {fileID: 0}
  m_PrefabInternal: {fileID: 0}
  m_Name: Complete
  serializedVersion: 6
  m_Legacy: 0
  m_Compressed: 0
  m_UseHighQualityCurve: 1
  m_RotationCurves: []
  m_CompressedRotationCurves: []
  m_EulerCurves: []
  m_PositionCurves: []
  m_ScaleCurves:
  - curve:
      serializedVersion: 2
      m_Curve:
      - serializedVersion: 2
        time: 0.25
        value: {x: 0, y: 0, z: 1}
        inSlope: {x: 16.799997, y: 16.799997, z: 0}
        outSlope: {x: 16.799997, y: 16.799997, z: 0}
        tangentMode: 0
      - serializedVersion: 2
        time: 0.33333334
        value: {x: 1.4, y: 1.4, z: 1}
        inSlope: {x: 4.7999983, y: 4.7999983, z: 0}
        outSlope: {x: 4.7999983, y: 4.7999983, z: 0}
        tangentMode: 0
      - serializedVersion: 2
        time: 0.41666666
        value: {x: 0.8, y: 0.8, z: 1}
        inSlope: {x: -2.4000008, y: -2.4000008, z: 0}
        outSlope: {x: -2.4000008, y: -2.4000008, z: 0}
        tangentMode: 0
      - serializedVersion: 2
        time: 0.5
        value: {x: 1, y: 1, z: 1}
        inSlope: {x: 2.3999996, y: 2.3999996, z: 0}
        outSlope: {x: 2.3999996, y: 2.3999996, z: 0}
        tangentMode: 0
      m_PreInfinity: 2
      m_PostInfinity: 2
      m_RotationOrder: 4
    path: Star
  - curve:
      serializedVersion: 2
      m_Curve:
      - serializedVersion: 2
        time: 0
        value: {x: 5, y: 5, z: 1}
        inSlope: {x: -20, y: -20, z: 0}
        outSlope: {x: -20, y: -20, z: 0}
        tangentMode: 0
      - serializedVersion: 2
        time: 0.25
        value: {x: 0, y: 0, z: 1}
        inSlope: {x: -20, y: -20, z: 0}
        outSlope: {x: -20, y: -20, z: 0}
        tangentMode: 0
      m_PreInfinity: 2
      m_PostInfinity: 2
      m_RotationOrder: 4
    path: Star2
  m_FloatCurves:
  - curve:
      serializedVersion: 2
      m_Curve:
      - serializedVersion: 2
        time: 0.25
        value: 0
        inSlope: 11.999999
        outSlope: 11.999999
        tangentMode: 34
      - serializedVersion: 2
        time: 0.33333334
        value: 1
        inSlope: 1.6679983
        outSlope: 1.6679983
        tangentMode: 34
      - serializedVersion: 2
        time: 0.41666666
        value: 0.278
        inSlope: 6.4979997
        outSlope: 6.4979997
        tangentMode: 34
      - serializedVersion: 2
        time: 0.45
        value: 1
        inSlope: 6.4950004
        outSlope: 6.4950004
        tangentMode: 34
      - serializedVersion: 2
        time: 0.51666665
        value: 0.422
        inSlope: 4.334992
        outSlope: 4.334992
        tangentMode: 34
      - serializedVersion: 2
        time: 0.55
        value: 1
        inSlope: 2.2274923
        outSlope: 2.2274923
        tangentMode: 34
      - serializedVersion: 2
        time: 0.6166667
        value: 0.141
        inSlope: -4.099773
        outSlope: -4.099773
        tangentMode: 34
      - serializedVersion: 2
        time: 0.8
        value: 1
        inSlope: 2.3427272
        outSlope: 2.3427272
        tangentMode: 34
      - serializedVersion: 2
        time: 1
        value: 1
        inSlope: 0
        outSlope: 0
        tangentMode: 34
      m_PreInfinity: 2
      m_PostInfinity: 2
      m_RotationOrder: 4
    attribute: m_Color.a
    path: Star
    classID: 114
    script: {fileID: -765806418, guid: f5f67c52d1564df4a8936ccd202a3bd8, type: 3}
  - curve:
      serializedVersion: 2
      m_Curve:
      - serializedVersion: 2
        time: 0
        value: 0
        inSlope: 8.571428
        outSlope: 8.571428
        tangentMode: 34
      - serializedVersion: 2
        time: 0.11666667
        value: 1
        inSlope: 1.9780219
        outSlope: 1.9780219
        tangentMode: 34
      - serializedVersion: 2
        time: 0.33333334
        value: 0
        inSlope: -4.6153846
        outSlope: -4.6153846
        tangentMode: 34
      m_PreInfinity: 2
      m_PostInfinity: 2
      m_RotationOrder: 4
    attribute: m_Color.a
    path: Star2
    classID: 114
    script: {fileID: -765806418, guid: f5f67c52d1564df4a8936ccd202a3bd8, type: 3}
  - curve:
      serializedVersion: 2
      m_Curve:
      - serializedVersion: 2
        time: 0
        value: 1
        inSlope: Infinity
        outSlope: Infinity
        tangentMode: 103
      - serializedVersion: 2
        time: 0.98333335
        value: 1
        inSlope: Infinity
        outSlope: Infinity
        tangentMode: 103
      - serializedVersion: 2
        time: 1
        value: 0
        inSlope: Infinity
        outSlope: Infinity
        tangentMode: 103
      m_PreInfinity: 2
      m_PostInfinity: 2
      m_RotationOrder: 4
    attribute: m_IsActive
    path: FX_Complete
    classID: 1
    script: {fileID: 0}
  m_PPtrCurves: []
  m_SampleRate: 60
  m_WrapMode: 0
  m_Bounds:
    m_Center: {x: 0, y: 0, z: 0}
    m_Extent: {x: 0, y: 0, z: 0}
  m_ClipBindingConstant:
    genericBindings:
    - serializedVersion: 2
      path: 1776940330
      attribute: 3
      script: {fileID: 0}
      typeID: 4
      customType: 0
      isPPtrCurve: 0
    - serializedVersion: 2
      path: 3238501934
      attribute: 3
      script: {fileID: 0}
      typeID: 4
      customType: 0
      isPPtrCurve: 0
    - serializedVersion: 2
      path: 1776940330
      attribute: 304273561
      script: {fileID: -765806418, guid: f5f67c52d1564df4a8936ccd202a3bd8, type: 3}
      typeID: 114
      customType: 0
      isPPtrCurve: 0
    - serializedVersion: 2
      path: 3238501934
      attribute: 304273561
      script: {fileID: -765806418, guid: f5f67c52d1564df4a8936ccd202a3bd8, type: 3}
      typeID: 114
      customType: 0
      isPPtrCurve: 0
    - serializedVersion: 2
      path: 2355185479
      attribute: 2086281974
      script: {fileID: 0}
      typeID: 1
      customType: 0
      isPPtrCurve: 0
    pptrCurveMapping: []
  m_AnimationClipSettings:
    serializedVersion: 2
    m_AdditiveReferencePoseClip: {fileID: 0}
    m_AdditiveReferencePoseTime: 0
    m_StartTime: 0
    m_StopTime: 1
    m_OrientationOffsetY: 0
    m_Level: 0
    m_CycleOffset: 0
    m_HasAdditiveReferencePose: 0
    m_LoopTime: 0
    m_LoopBlend: 0
    m_LoopBlendOrientation: 0
    m_LoopBlendPositionY: 0
    m_LoopBlendPositionXZ: 0
    m_KeepOriginalOrientation: 0
    m_KeepOriginalPositionY: 1
    m_KeepOriginalPositionXZ: 0
    m_HeightFromFeet: 0
    m_Mirror: 0
  m_EditorCurves:
  - curve:
      serializedVersion: 2
      m_Curve:
      - serializedVersion: 2
        time: 0.25
        value: 0
        inSlope: 11.999999
        outSlope: 11.999999
        tangentMode: 34
      - serializedVersion: 2
        time: 0.33333334
        value: 1
        inSlope: 1.6679983
        outSlope: 1.6679983
        tangentMode: 34
      - serializedVersion: 2
        time: 0.41666666
        value: 0.278
        inSlope: 6.4979997
        outSlope: 6.4979997
        tangentMode: 34
      - serializedVersion: 2
        time: 0.45
        value: 1
        inSlope: 6.4950004
        outSlope: 6.4950004
        tangentMode: 34
      - serializedVersion: 2
        time: 0.51666665
        value: 0.422
        inSlope: 4.334992
        outSlope: 4.334992
        tangentMode: 34
      - serializedVersion: 2
        time: 0.55
        value: 1
        inSlope: 2.2274923
        outSlope: 2.2274923
        tangentMode: 34
      - serializedVersion: 2
        time: 0.6166667
        value: 0.141
        inSlope: -4.099773
        outSlope: -4.099773
        tangentMode: 34
      - serializedVersion: 2
        time: 0.8
        value: 1
        inSlope: 2.3427272
        outSlope: 2.3427272
        tangentMode: 34
      - serializedVersion: 2
        time: 1
        value: 1
        inSlope: 0
        outSlope: 0
        tangentMode: 34
      m_PreInfinity: 2
      m_PostInfinity: 2
      m_RotationOrder: 4
    attribute: m_Color.a
    path: Star
    classID: 114
    script: {fileID: -765806418, guid: f5f67c52d1564df4a8936ccd202a3bd8, type: 3}
  - curve:
      serializedVersion: 2
      m_Curve:
      - serializedVersion: 2
        time: 0.25
        value: 0
        inSlope: 16.799997
        outSlope: 16.799997
        tangentMode: 34
      - serializedVersion: 2
        time: 0.33333334
        value: 1.4
        inSlope: 4.7999983
        outSlope: 4.7999983
        tangentMode: 34
      - serializedVersion: 2
        time: 0.41666666
        value: 0.8
        inSlope: -2.4000008
        outSlope: -2.4000008
        tangentMode: 34
      - serializedVersion: 2
        time: 0.5
        value: 1
        inSlope: 2.3999996
        outSlope: 2.3999996
        tangentMode: 34
      m_PreInfinity: 2
      m_PostInfinity: 2
      m_RotationOrder: 4
    attribute: m_LocalScale.x
    path: Star
    classID: 224
    script: {fileID: 0}
  - curve:
      serializedVersion: 2
      m_Curve:
      - serializedVersion: 2
        time: 0.25
        value: 0
        inSlope: 16.799997
        outSlope: 16.799997
        tangentMode: 34
      - serializedVersion: 2
        time: 0.33333334
        value: 1.4
        inSlope: 4.7999983
        outSlope: 4.7999983
        tangentMode: 34
      - serializedVersion: 2
        time: 0.41666666
        value: 0.8
        inSlope: -2.4000008
        outSlope: -2.4000008
        tangentMode: 34
      - serializedVersion: 2
        time: 0.5
        value: 1
        inSlope: 2.3999996
        outSlope: 2.3999996
        tangentMode: 34
      m_PreInfinity: 2
      m_PostInfinity: 2
      m_RotationOrder: 4
    attribute: m_LocalScale.y
    path: Star
    classID: 224
    script: {fileID: 0}
  - curve:
      serializedVersion: 2
      m_Curve:
      - serializedVersion: 2
        time: 0.25
        value: 1
        inSlope: 0
        outSlope: 0
        tangentMode: 34
      - serializedVersion: 2
        time: 0.33333334
        value: 1
        inSlope: 0
        outSlope: 0
        tangentMode: 34
      - serializedVersion: 2
        time: 0.41666666
        value: 1
        inSlope: 0
        outSlope: 0
        tangentMode: 34
      - serializedVersion: 2
        time: 0.5
        value: 1
        inSlope: 0
        outSlope: 0
        tangentMode: 34
      m_PreInfinity: 2
      m_PostInfinity: 2
      m_RotationOrder: 4
    attribute: m_LocalScale.z
    path: Star
    classID: 224
    script: {fileID: 0}
  - curve:
      serializedVersion: 2
      m_Curve:
      - serializedVersion: 2
        time: 0
        value: 0
        inSlope: 8.571428
        outSlope: 8.571428
        tangentMode: 34
      - serializedVersion: 2
        time: 0.11666667
        value: 1
        inSlope: 1.9780219
        outSlope: 1.9780219
        tangentMode: 34
      - serializedVersion: 2
        time: 0.33333334
        value: 0
        inSlope: -4.6153846
        outSlope: -4.6153846
        tangentMode: 34
      m_PreInfinity: 2
      m_PostInfinity: 2
      m_RotationOrder: 4
    attribute: m_Color.a
    path: Star2
    classID: 114
    script: {fileID: -765806418, guid: f5f67c52d1564df4a8936ccd202a3bd8, type: 3}
  - curve:
      serializedVersion: 2
      m_Curve:
      - serializedVersion: 2
        time: 0
        value: 5
        inSlope: -20
        outSlope: -20
        tangentMode: 34
      - serializedVersion: 2
        time: 0.25
        value: 0
        inSlope: -20
        outSlope: -20
        tangentMode: 34
      m_PreInfinity: 2
      m_PostInfinity: 2
      m_RotationOrder: 4
    attribute: m_LocalScale.x
    path: Star2
    classID: 224
    script: {fileID: 0}
  - curve:
      serializedVersion: 2
      m_Curve:
      - serializedVersion: 2
        time: 0
        value: 5
        inSlope: -20
        outSlope: -20
        tangentMode: 34
      - serializedVersion: 2
        time: 0.25
        value: 0
        inSlope: -20
        outSlope: -20
        tangentMode: 34
      m_PreInfinity: 2
      m_PostInfinity: 2
      m_RotationOrder: 4
    attribute: m_LocalScale.y
    path: Star2
    classID: 224
    script: {fileID: 0}
  - curve:
      serializedVersion: 2
      m_Curve:
      - serializedVersion: 2
        time: 0
        value: 1
        inSlope: 0
        outSlope: 0
        tangentMode: 34
      - serializedVersion: 2
        time: 0.25
        value: 1
        inSlope: 0
        outSlope: 0
        tangentMode: 34
      m_PreInfinity: 2
      m_PostInfinity: 2
      m_RotationOrder: 4
    attribute: m_LocalScale.z
    path: Star2
    classID: 224
    script: {fileID: 0}
  - curve:
      serializedVersion: 2
      m_Curve:
      - serializedVersion: 2
        time: 0
        value: 1
        inSlope: Infinity
        outSlope: Infinity
        tangentMode: 103
      - serializedVersion: 2
        time: 0.98333335
        value: 1
        inSlope: Infinity
        outSlope: Infinity
        tangentMode: 103
      - serializedVersion: 2
        time: 1
        value: 0
        inSlope: Infinity
        outSlope: Infinity
        tangentMode: 103
      m_PreInfinity: 2
      m_PostInfinity: 2
      m_RotationOrder: 4
    attribute: m_IsActive
    path: FX_Complete
    classID: 1
    script: {fileID: 0}
  m_EulerEditorCurves: []
  m_HasGenericRootTransform: 0
  m_HasMotionFloatCurves: 0
  m_GenerateMotionCurves: 0
  m_Events: []
