%YAML 1.1
%TAG !u! tag:unity3d.com,2011:
--- !u!1045 &1
EditorBuildSettings:
  m_ObjectHideFlags: 0
  serializedVersion: 2
  m_Scenes:
  - enabled: 0
    path: Assets/Prototype/Photon/Scene/Lobby.unity
    guid: 46ee5f1f20749734c9c11057afd8343f
  - enabled: 0
    path: Assets/01.Scenes/TestScene.unity
    guid: 330efbf8cd9d7ea4b9a35bf018f41283
  - enabled: 0
    path: Assets/01.Scenes/characterScriptTest.unity
    guid: 9873297f87e1dc049bde5a8de82f2af3
  - enabled: 1
    path: Assets/01.Scenes/Title.unity
    guid: 01cb82e983b9ade4cbf24d1c0c86defa
  - enabled: 1
    path: Assets/01.Scenes/MapScene/TestMap100.unity
    guid: b4d5a589a1026ac498dac0bd81f51221
